{
  "count": 100,
  "next": "http://example.com/api/products/?page=2",
  "previous": null,
  "results": [
    {
      "id": 1,
      "name": "Industrial Valve XC-200",
      "sku": "VAL-XC200-01",
      "description": "High-quality industrial valve for chemical processing applications.",
      "price": 149.99,
      "default_price": {
        "amount": "159.99",
        "currency_iso": "USD",
        "price_type_code": "base"
      },
      "category": "Industrial Valves",
      "brand": "ValveTech",
      "barcode": "7891234567890",
      "tags": ["industrial", "valve", "chemical-resistant"],
      "is_active": true,
      "is_archived": false,
      "created_at": "2023-09-15T10:23:45Z",
      "updated_at": "2023-10-01T14:35:22Z",
      "created_by": "john.doe@example.com",
      "primary_image_url": "https://example.com/media/products/valve-xc200.jpg",
      "completeness_percent": 95
    },
    {
      "id": 2,
      "name": "Hydraulic Pressure Gauge HPG-500",
      "sku": "HPG-500-02",
      "description": "Precision hydraulic pressure gauge with digital readout.",
      "price": 89.95,
      "default_price": {
        "amount": "89.95",
        "currency_iso": "USD",
        "price_type_code": "legacy"
      },
      "category": "Measurement Instruments",
      "brand": "PressureTech",
      "barcode": "7891234567891",
      "tags": ["hydraulic", "gauge", "digital"],
      "is_active": true,
      "is_archived": false,
      "created_at": "2023-09-18T11:42:15Z",
      "updated_at": "2023-09-20T09:12:33Z",
      "created_by": "jane.smith@example.com",
      "primary_image_url": "https://example.com/media/products/hpg-500.jpg",
      "completeness_percent": 85
    },
    {
      "id": 3,
      "name": "Industrial Safety Gloves",
      "sku": "ISG-100-L",
      "description": "Heavy-duty safety gloves for industrial applications. Size: Large.",
      "price": 24.99,
      "default_price": {
        "amount": "29.99",
        "currency_iso": "EUR",
        "price_type_code": "base"
      },
      "category": "Safety Equipment",
      "brand": "SafetyFirst",
      "barcode": "7891234567892",
      "tags": ["safety", "gloves", "industrial"],
      "is_active": true,
      "is_archived": false,
      "created_at": "2023-09-20T14:07:30Z",
      "updated_at": "2023-09-25T16:45:10Z",
      "created_by": "john.doe@example.com",
      "primary_image_url": "https://example.com/media/products/safety-gloves.jpg",
      "completeness_percent": 100
    }
  ]
} 